<?xml version="1.0" encoding="UTF-8" standalone="no"?>
<!DOCTYPE svg PUBLIC "-//W3C//DTD SVG 1.1//EN"
"http://www.w3.org/Graphics/SVG/1.1/DTD/svg11.dtd">


<!-- Page 1 -->
<svg x="0" y="0" width="811" height="899" viewBox="0 0 811 899" version="1.1" xmlns="http://www.w3.org/2000/svg" xmlns:xlink="http://www.w3.org/1999/xlink"
style="display: block;margin-left: auto;margin-right: auto;">
<defs>
<clipPath id="c_1"><path d="M0,0H811V899H0Z"/></clipPath>
</defs>
<g clip-path="url(#c_1)">
<path d="M0,0
L0,899
L811,899
L811,0 Z " 
fill="#FFFFFF" stroke="none"/>
<image preserveAspectRatio="none" x="0" y="0" width="813" height="901" xlink:href="1/img/1.png"/>
<image preserveAspectRatio="none" x="0" y="0" width="813" height="901" xlink:href="1/img/2.png"/>

</g>
</svg>
